<?xml version="1.0" encoding="UTF-8" standalone="no"?>
<!-- Created with Inkscape (http://www.inkscape.org/) -->

<svg
   xmlns:dc="http://purl.org/dc/elements/1.1/"
   xmlns:cc="http://creativecommons.org/ns#"
   xmlns:rdf="http://www.w3.org/1999/02/22-rdf-syntax-ns#"
   xmlns:svg="http://www.w3.org/2000/svg"
   xmlns="http://www.w3.org/2000/svg"
   xmlns:sodipodi="http://sodipodi.sourceforge.net/DTD/sodipodi-0.dtd"
   xmlns:inkscape="http://www.inkscape.org/namespaces/inkscape"
   width="175.9857mm"
   height="157.70383mm"
   viewBox="0 0 623.57139 558.79308"
   id="svg2"
   version="1.1"
   inkscape:version="0.91 r13725"
   sodipodi:docname="blue-river-line.svg">
  <defs
     id="defs4" />
  <sodipodi:namedview
     id="base"
     pagecolor="#ffffff"
     bordercolor="#666666"
     borderopacity="1.0"
     inkscape:pageopacity="0.0"
     inkscape:pageshadow="2"
     inkscape:zoom="0.7"
     inkscape:cx="317.33057"
     inkscape:cy="328.46761"
     inkscape:document-units="px"
     inkscape:current-layer="layer1"
     showgrid="false"
     fit-margin-top="0"
     fit-margin-left="0"
     fit-margin-right="0"
     fit-margin-bottom="0"
     inkscape:window-width="1366"
     inkscape:window-height="706"
     inkscape:window-x="-8"
     inkscape:window-y="-8"
     inkscape:window-maximized="1" />
  <metadata
     id="metadata7">
    <rdf:RDF>
      <cc:Work
         rdf:about="">
        <dc:format>image/svg+xml</dc:format>
        <dc:type
           rdf:resource="http://purl.org/dc/dcmitype/StillImage" />
        <dc:title></dc:title>
      </cc:Work>
    </rdf:RDF>
  </metadata>
  <g
     inkscape:label="Layer 1"
     inkscape:groupmode="layer"
     id="layer1"
     transform="translate(861.78569,-338.82922)">
    <path
       style="fill:#000000"
       d="m -685.75087,896.44579 c 0.027,-0.53652 0.8467,-2.22608 1.82153,-3.75457 l 1.77244,-2.77908 1.69462,3.23634 c 0.93205,1.77998 1.3729,3.51629 0.97966,3.85846 -0.39322,0.34218 -1.31241,-0.6775 -2.04261,-2.26593 -0.90821,-1.97563 -1.3554,-2.24388 -1.41548,-0.8491 -0.0484,1.12142 -0.71141,2.37429 -1.47356,2.78416 -0.76214,0.40986 -1.36361,0.30624 -1.3366,-0.23028 z m 11.29648,-2.65378 c -0.87827,-2.19223 -0.96565,-3.52437 -0.20434,-3.11495 0.7316,0.39344 1.3697,1.63287 1.41802,2.75429 0.0601,1.39478 0.50727,1.12653 1.41548,-0.84911 0.7302,-1.58842 1.67483,-2.58595 2.09917,-2.21671 0.42435,0.36925 -0.12069,2.15307 -1.21114,3.96406 l -1.98269,3.29271 -1.5345,-3.83029 z m 5.28298,1.60712 c 0,-1.03391 0.62357,-1.54448 1.38571,-1.13461 0.76215,0.40986 1.38572,1.25579 1.38572,1.87982 0,0.62404 -0.62357,1.13461 -1.38572,1.13461 -0.76214,0 -1.38571,-0.84592 -1.38571,-1.87982 z m 7.85239,1.07597 c -0.5081,-0.44211 -0.90486,-1.66296 -0.88168,-2.71299 0.0346,-1.56787 0.30501,-1.51578 1.51273,0.2914 1.49211,2.23272 1.05953,3.89266 -0.63105,2.42159 z m 4.61904,-0.2596 c 0,-0.66318 0.62357,-1.54112 1.38571,-1.95098 0.76215,-0.40987 1.38572,-0.20261 1.38572,0.46057 0,0.66317 -0.62357,1.54111 -1.38572,1.95098 -0.76214,0.40986 -1.38571,0.2026 -1.38571,-0.46057 z m 10.40267,-0.12851 c -0.48548,-0.68351 0.0708,-0.88565 1.30393,-0.47389 1.1828,0.39496 2.15054,0.17549 2.15054,-0.48768 0,-0.66318 -0.93536,-1.5181 -2.07857,-1.89984 -1.14321,-0.38172 -2.07857,-1.2748 -2.07857,-1.98463 0,-0.70983 1.31346,-0.22582 2.9188,1.07559 1.60535,1.30139 2.5039,2.95033 1.9968,3.66429 -1.15247,1.62259 -3.101,1.67169 -4.21293,0.10611 z m 16.76701,-0.71532 c -1.29745,-2.94207 -0.91742,-3.7586 0.6556,-1.4086 2.04897,3.06108 3.77827,2.59138 4.43934,-1.20577 0.5373,-3.08626 0.59165,-3.0445 0.7849,0.60289 0.1645,3.10471 -0.3373,3.91876 -2.41555,3.91876 -1.44275,0 -3.00168,-0.85827 -3.46429,-1.90728 z m 9.95376,-1.68199 c -0.33298,-1.97411 -0.10158,-4.28016 0.51434,-5.12455 1.17792,-1.61498 1.23312,-1.45111 1.6153,4.79514 0.30047,4.91082 -1.31476,5.16066 -2.12964,0.32941 z m 6.75751,2.78542 c -0.5081,-0.44211 -0.91426,-2.74815 -0.90259,-5.12454 0.0141,-2.88975 0.41687,-3.77732 1.21586,-2.68 0.65707,0.90238 0.86988,2.72137 0.47293,4.0422 -0.40501,1.34766 0.12555,2.86834 1.20914,3.46538 1.06197,0.58514 1.25531,1.0722 0.42966,1.08235 -0.82566,0.01 -1.91691,-0.34327 -2.425,-0.78539 z m 5.54286,0 c -1.48579,-1.29284 -1.06323,-5.00773 0.67601,-5.94305 0.94558,-0.50852 1.22538,-0.33319 0.68422,0.42874 -0.50358,0.70901 -0.1322,1.5639 0.82518,1.89977 1.38337,0.4853 1.38515,0.63022 0.008,0.70587 -0.95268,0.0523 -1.73215,0.70108 -1.73215,1.4416 0,0.75308 1.22215,1.06831 2.77334,0.71534 1.52534,-0.34708 2.42389,-0.13907 1.99679,0.46226 -0.90859,1.27923 -3.9041,1.44496 -5.23203,0.28947 z m 8.77619,-2.81347 c 0,-1.98953 0.51557,-3.61733 1.14572,-3.61733 0.63014,0 0.87116,1.6278 0.53558,3.61733 -0.33558,1.98953 -0.85115,3.61732 -1.14573,3.61732 -0.29456,0 -0.53557,-1.62779 -0.53557,-3.61732 z m 6.24552,2.42536 c -0.48547,-0.68351 0.0708,-0.88565 1.30393,-0.47389 1.1828,0.39496 2.15055,0.17549 2.15055,-0.48768 0,-0.66318 -0.93536,-1.5181 -2.07858,-1.89984 -1.14321,-0.38172 -2.07857,-1.24836 -2.07857,-1.92586 0,-0.6775 1.24715,-0.30264 2.77143,0.83302 1.52429,1.13566 2.77143,2.75814 2.77143,3.60552 0,1.8136 -3.61477,2.07403 -4.84019,0.34873 z m 8.26099,-0.6167 c -0.35715,-0.99476 -0.90347,-2.53612 -1.21402,-3.42522 -0.31055,-0.88911 -0.008,-2.38126 0.67164,-3.31588 1.04555,-1.43715 1.26417,-1.42027 1.41707,0.10936 0.0995,0.99477 0.0553,2.83294 -0.0982,4.08483 -0.15346,1.25189 0.5542,2.73572 1.57256,3.29741 1.44499,0.79701 1.46168,1.02532 0.0759,1.03973 -0.97661,0.01 -2.06786,-0.79544 -2.425,-1.7902 z m 5.8652,1.04649 c -1.3859,-1.20593 -1.20539,-6.47248 0.22184,-6.47248 0.65646,0 0.89555,1.3565 0.53131,3.01444 -0.50035,2.27754 -0.0751,3.01444 1.73942,3.01444 1.81455,0 2.23977,-0.7369 1.73942,-3.01444 -0.36424,-1.65794 -0.0837,-3.01444 0.62335,-3.01444 0.70709,0 1.08828,1.48751 0.84713,3.30558 -0.41914,3.15986 -3.6491,4.95365 -5.70247,3.1669 z m 9.6521,-0.0417 c -1.35038,-1.17498 -1.12991,-6.43076 0.26974,-6.43076 0.65646,0 0.90656,1.30638 0.55579,2.90306 -0.46142,2.10032 0.0707,3.06189 1.92429,3.47745 1.90337,0.42672 1.99798,0.61036 0.36804,0.71427 -1.20674,0.0769 -2.60977,-0.22186 -3.11786,-0.66398 z m 7.75884,-4.62209 c 0.0258,-3.31588 0.31041,-4.50291 0.63249,-2.63784 0.51015,2.95409 0.87479,3.18714 2.82981,1.80866 1.79457,-1.26535 2.02819,-1.26982 1.16604,-0.0223 -0.59299,0.85803 -0.31204,2.36329 0.62432,3.34503 0.93636,0.98174 1.31651,2.12083 0.84477,2.53131 -0.47174,0.41048 -1.25089,-0.14523 -1.73144,-1.23491 -1.14213,-2.58986 -2.98149,-2.52715 -3.77914,0.12886 -0.34855,1.16056 -0.61263,-0.60289 -0.58685,-3.91877 z m 13.02687,4.62213 c -1.31776,-1.14663 -1.14304,-4.96479 0.26172,-5.72026 0.65205,-0.35066 0.87268,0.78654 0.4903,2.52711 -0.60596,2.75828 -0.31308,3.07772 2.28066,2.48752 1.63675,-0.37244 2.62646,-0.18517 2.19935,0.41616 -0.90858,1.27923 -3.9041,1.44496 -5.23203,0.28947 z m 8.06407,-1.6605 c -0.5219,-1.43083 -0.36756,-3.10735 0.34296,-3.72561 0.79869,-0.69498 1.24801,-0.0732 1.17695,1.62859 -0.0704,1.68746 0.68945,2.75271 1.96364,2.75271 1.27419,0 2.03409,-1.06525 1.96364,-2.75271 -0.0809,-1.93978 0.31904,-2.37509 1.35456,-1.47404 1.03553,0.90107 1.02561,1.89205 -0.0335,3.3556 -2.23559,3.08907 -5.68002,3.19872 -6.76816,0.21546 z m 9.0264,-1.15297 c 0,-1.98953 0.51557,-3.61733 1.14573,-3.61733 0.63014,0 0.87115,1.6278 0.53558,3.61733 -0.33558,1.98953 -0.85115,3.61732 -1.14573,3.61732 -0.29456,0 -0.53558,-1.62779 -0.53558,-3.61732 z m 5.54286,0 c 0,-1.98953 0.51557,-3.61733 1.14572,-3.61733 0.63014,0 0.87116,1.6278 0.53558,3.61733 -0.33558,1.98953 -0.85114,3.61732 -1.14572,3.61732 -0.29456,0 -0.53558,-1.62779 -0.53558,-3.61732 z m 5.37818,0.26356 c -0.45651,-2.39614 -0.25316,-3.521 0.51561,-2.85206 0.69818,0.60752 1.0374,2.38801 0.75383,3.95664 -0.43633,2.41359 -0.63151,2.24376 -1.26944,-1.10458 z m 25.85762,2.22856 c -0.52509,-0.73929 -0.0644,-0.98171 1.11635,-0.58744 2.56116,0.85518 4.60244,-1.86725 2.32029,-3.09454 -1.23738,-0.66544 -1.28029,-1.15197 -0.15492,-1.75718 2.30491,-1.23953 0.21754,-3.36959 -2.43983,-2.48972 -1.64624,0.54509 -1.86547,0.38852 -0.78441,-0.56021 2.84207,-2.49414 5.72702,-0.14632 5.57369,4.53593 -0.14518,4.43294 -3.5785,6.84317 -5.63117,3.95316 z m 10.05849,-0.32173 c 2.18006,-1.89697 2.13577,-6.62648 -0.0693,-7.40071 -1.09268,-0.38365 -0.89061,-0.64331 0.5473,-0.70336 1.67195,-0.0698 2.42033,1.19023 2.80805,4.7279 0.45541,4.15523 0.14936,4.8231 -2.21015,4.8231 -2.13015,0 -2.36924,-0.32154 -1.07591,-1.44693 z m 9.27296,-0.96462 c 0.48695,-1.65794 1.21425,-3.9145 1.6162,-5.01459 0.46632,-1.2762 -0.1934,-2.20753 -1.82274,-2.57312 -1.72715,-0.38754 -1.32031,-0.61824 1.25715,-0.71284 2.09589,-0.0769 3.81071,0.0722 3.81071,0.33135 0,0.25915 -1.29299,2.8365 -2.87333,5.72743 -1.58034,2.89092 -2.47493,3.89971 -1.98799,2.24177 z m 8.60447,1.64938 c -0.53444,-0.46504 -0.97172,-2.67122 -0.97172,-4.90262 0,-4.30016 3.1335,-6.56021 5.83562,-4.20897 1.06576,0.92737 0.64315,1.10522 -1.47887,0.62236 -2.63313,-0.59916 -2.97104,-0.18008 -2.97104,3.68479 0,3.07246 0.61411,4.36084 2.07858,4.36084 2.32873,0 2.86709,-4.28185 0.65821,-5.23508 -0.7812,-0.33711 -0.6253,-0.47276 0.34643,-0.30144 2.53731,0.44734 2.20964,6.03217 -0.37936,6.46602 -1.18037,0.1978 -2.58341,-0.0209 -3.11785,-0.4859 z m 9.71054,0.01 c -1.96121,-1.70656 -1.02437,-8.62115 1.27195,-9.3879 3.47006,-1.15869 6.25292,1.64031 5.78441,5.81797 -0.30007,2.67563 -1.21128,3.81893 -3.24564,4.07233 -1.55565,0.19377 -3.27047,-0.0323 -3.81072,-0.5024 z m 5.25345,-4.77394 c 0,-2.30783 -0.70804,-3.51685 -2.05958,-3.51685 -2.27874,0 -3.47313,3.34448 -2.21403,6.19958 1.31642,2.98504 4.27361,1.12866 4.27361,-2.68273 z m 5.88929,4.7279 c 0.95268,-0.33449 1.73214,-2.14554 1.73214,-4.02454 0,-1.87899 -0.77946,-3.69004 -1.73214,-4.02454 -1.09268,-0.38365 -0.89061,-0.64331 0.5473,-0.70336 1.67195,-0.0698 2.42033,1.19023 2.80805,4.7279 0.46192,4.21462 0.17434,4.81109 -2.27944,4.72791 -1.54443,-0.0523 -2.02859,-0.36887 -1.07591,-0.70337 z m 8.31428,0 c 2.21352,-0.77719 2.27107,-7.28459 0.0701,-7.92299 -1.0396,-0.30153 -0.78011,-0.77657 0.69286,-1.2684 1.96709,-0.65683 2.35494,-0.0147 2.35494,3.89844 0,2.61961 0.76357,4.95288 1.73214,5.29295 0.95268,0.3345 -0.13857,0.60818 -2.425,0.60818 -2.28643,0 -3.37768,-0.27368 -2.425,-0.60818 z m 9.77338,-2.95235 c 0.4023,-2.38507 -0.0636,-4.1346 -1.27928,-4.80463 -1.51386,-0.83433 -1.40704,-1.05757 0.51305,-1.0722 1.84049,-0.014 2.425,0.97454 2.425,4.10128 0,2.26584 0.77946,4.39341 1.73214,4.7279 0.95268,0.3345 0.43711,0.65101 -1.14572,0.70337 -2.44787,0.081 -2.78333,-0.46524 -2.24519,-3.65572 z m 7.78695,2.13322 c -1.2564,-2.84897 -0.0639,-8.41593 1.87432,-8.74942 0.97173,-0.1672 1.12762,-0.0282 0.34643,0.30894 -2.36187,1.01924 -1.59202,3.7732 1.00464,3.59388 3.36737,-0.23254 3.3634,5.67112 -0.004,6.23545 -1.33606,0.22389 -2.7856,-0.40109 -3.2212,-1.38885 z m 4.95753,-2.10011 c 0,-2.93853 -3.23809,-2.52317 -3.91231,0.50185 -0.2652,1.18981 0.44171,2.01018 1.73214,2.01018 1.28543,0 2.18017,-1.03094 2.18017,-2.51203 z m -224.13626,-2.91396 c 0.0154,-2.6527 0.29916,-3.59592 0.63061,-2.09605 0.33145,1.49988 0.31887,3.67028 -0.028,4.8231 -0.34683,1.15283 -0.61803,-0.0744 -0.60264,-2.72705 z m -48.74004,1.1053 c 0.0665,-1.40467 0.39484,-1.69038 0.83719,-0.72849 0.40029,0.87041 0.35107,1.9104 -0.10933,2.31107 -0.46048,0.40067 -0.78798,-0.3115 -0.72781,-1.58258 z m 8.31428,0 c 0.0665,-1.40467 0.39485,-1.69038 0.8372,-0.72849 0.40029,0.87041 0.35107,1.9104 -0.10934,2.31107 -0.46047,0.40067 -0.78797,-0.3115 -0.7278,-1.58258 z m 19.2906,0.10048 c 0,-0.99477 0.62357,-1.80867 1.38571,-1.80867 0.76215,0 1.38572,0.8139 1.38572,1.80867 0,0.99476 -0.62357,1.80866 -1.38572,1.80866 -0.76214,0 -1.38571,-0.8139 -1.38571,-1.80866 z m 56.92369,-0.10044 c 0.0665,-1.40467 0.39484,-1.69038 0.83719,-0.7285 0.40029,0.87042 0.35107,1.91041 -0.10933,2.31108 -0.46048,0.40066 -0.78798,-0.3115 -0.72781,-1.58258 z m -240.53083,-13.15653 c 19.48036,-14.037 23.99941,-16.26743 32.97953,-16.27747 8.13668,-0.01 12.45697,1.85306 26.25854,11.31804 l 10.73806,7.36405 -11.31131,0.3534 c -7.79186,0.24344 -12.97409,-0.22553 -16.65539,-1.50722 -6.60315,-2.29898 -13.20327,-2.31828 -17.75943,-0.052 -2.27816,1.13321 -7.73432,1.73578 -15.93571,1.75994 l -12.47143,0.0368 4.15714,-2.99553 z m 105.22763,-0.91126 c 18.14765,-13.18243 23.07356,-15.55579 32.30987,-15.56727 7.09392,-0.008 14.17215,3.22517 26.9369,12.30729 l 9.24229,6.57586 -11.2173,0.3534 c -7.7088,0.24286 -12.88881,-0.22857 -16.5614,-1.50722 -6.60315,-2.29898 -13.20326,-2.31828 -17.75942,-0.052 -2.27318,1.13073 -7.74169,1.7379 -15.90501,1.76593 l -12.44073,0.0428 5.3948,-3.91877 z m 99.28069,3.45166 c 5.53815,-4.48037 21.22075,-14.80676 25.11861,-16.53964 6.3273,-2.81295 16.37246,-2.95035 22.29545,-0.30495 2.43912,1.08938 9.26688,5.29452 15.17282,9.34476 l 10.73807,7.36405 -11.31131,0.3534 c -7.79187,0.24344 -12.97409,-0.22553 -16.6554,-1.50722 -6.60315,-2.29898 -13.20326,-2.31828 -17.75942,-0.052 -2.26814,1.12822 -7.73054,1.73796 -15.82024,1.76593 -6.79577,0.0235 -12.09613,-0.16745 -11.77858,-0.42437 z m 103.92857,0 c 0.31757,-0.2569 4.94239,-3.56915 10.27739,-7.36054 22.22274,-15.79292 30.76608,-15.60537 54.47879,1.19589 l 8.50893,6.02887 -11.28139,0.3534 c -7.76543,0.24325 -12.94693,-0.22649 -16.62548,-1.50722 -6.60315,-2.29898 -13.20326,-2.31828 -17.75942,-0.052 -2.26814,1.12822 -7.73054,1.73796 -15.82025,1.76593 -6.79576,0.0235 -12.09612,-0.16745 -11.77857,-0.42437 z m 103.82565,0.0896 c 0.37418,-0.30617 5.04531,-3.65872 10.38031,-7.45011 22.25918,-15.81881 30.61307,-15.71772 53.61805,0.6489 l 9.24306,6.57586 -10.64484,0.37519 c -7.48222,0.26373 -12.80595,-0.25816 -17.91872,-1.75658 -6.41032,-1.87868 -7.97318,-1.938 -13.16429,-0.49953 -5.45592,1.51185 -33.04028,3.3555 -31.51357,2.10627 z m 104.60888,-0.5592 c 5.36258,-4.24397 21.57293,-14.78146 25.22047,-16.3945 2.43912,-1.07865 7.42769,-1.95465 11.08571,-1.94665 7.83361,0.0171 14.30307,2.91736 27.3951,12.28121 l 8.93939,6.39377 -10.68461,0.37519 c -7.51918,0.26404 -12.83962,-0.25637 -17.95851,-1.75659 -6.41032,-1.87868 -7.97318,-1.93799 -13.16429,-0.49952 -6.86752,1.90301 -32.93575,3.21101 -30.83326,1.54709 z m -535.57856,-55.13183 c 0,-6.18798 0.44065,-7.83754 2.09367,-7.83754 4.19606,0 14.28428,-5.05544 22.9667,-11.50914 12.37948,-9.20176 21.8435,-13.13666 29.15027,-12.11999 7.74495,1.07765 11.09833,2.75702 25.02393,12.53197 6.61509,4.6434 14.3178,9.10029 17.11714,9.90419 9.7989,2.81399 19.13467,-0.0885 32.33523,-10.05314 21.65112,-16.34359 31.12377,-16.5183 52.84163,-0.97454 23.49467,16.81544 29.07723,16.48707 57.86705,-3.4037 12.4981,-8.63489 21.62081,-10.15816 32.33251,-5.39875 1.97583,0.8779 8.21155,4.8912 13.85714,8.91847 23.38691,16.68292 28.99228,16.34122 57.73892,-3.51972 12.4981,-8.63489 21.62081,-10.15816 32.33251,-5.39875 1.97583,0.8779 8.21155,4.8912 13.85714,8.91847 22.44585,16.01162 30.0187,15.99489 52.529,-0.116 13.08954,-9.36836 20.60808,-12.42059 28.04615,-11.38564 7.51075,1.04506 11.16929,2.85774 24.72182,12.24886 22.89489,15.86481 27.76555,15.49614 56.37051,-4.26692 12.4576,-8.6069 21.70119,-10.16661 32.20438,-5.43395 1.90535,0.85853 9.07643,5.42952 15.93571,10.15775 7.59933,5.23834 14.77214,9.14446 18.36071,9.99874 l 5.88929,1.40198 0,7.58745 c 0,7.07932 -0.21017,7.58746 -3.13838,7.58746 -4.55583,0 -12.80895,-4.17369 -23.87547,-12.07409 -12.14474,-8.67016 -17.0299,-10.83566 -24.44412,-10.83566 -7.68776,0 -15.16407,3.2658 -26.17066,11.43189 -11.20819,8.31567 -18.4937,11.47783 -26.44444,11.47783 -7.85129,0 -13.56088,-2.55205 -26.42601,-11.81189 -20.73967,-14.92759 -30.57457,-14.86324 -51.05811,0.33406 -11.07491,8.21678 -18.48729,11.47783 -26.0891,11.47783 -8.15574,0 -13.18149,-2.13726 -25.1537,-10.6969 -12.41663,-8.87738 -19.79644,-12.21282 -27.02143,-12.21282 -7.22499,0 -14.60481,3.33544 -27.02143,12.21282 -12.02054,8.5942 -16.99344,10.6969 -25.29821,10.6969 -7.56014,0 -12.79516,-2.34992 -26.66607,-11.96998 -6.09715,-4.22863 -13.0923,-8.41996 -15.54478,-9.31408 -10.5004,-3.82818 -20.02458,-1.20979 -35.03379,9.63153 -11.91339,8.60517 -18.71449,11.65253 -26.00613,11.65253 -8.3282,0 -13.13738,-2.06702 -26.65101,-11.45486 -13.40382,-9.31154 -18.33472,-11.45486 -26.35288,-11.45486 -7.19362,0 -11.89264,2.13538 -25.50193,11.58885 -13.17337,9.15066 -18.091,11.32087 -25.65269,11.32087 -8.03377,0 -13.10365,-2.16622 -25.03536,-10.6969 -12.63659,-9.03464 -19.80021,-12.21282 -27.52774,-12.21282 -7.40934,0 -12.0227,2.07925 -25.71277,11.58885 -11.70073,8.12771 -18.14207,11.32087 -22.83676,11.32087 -2.65581,0 -2.90844,-0.68078 -2.90844,-7.83753 z m 0,-67.50044 c 0,-7.52838 0.13955,-7.84367 3.81071,-8.60964 6.18094,-1.2896 10.30588,-3.47111 22.50085,-11.89975 6.34694,-4.38673 13.70019,-8.76129 16.34054,-9.72125 10.40805,-3.78406 19.41172,-1.32484 34.08028,9.3085 12.46383,9.03513 19.70219,12.32282 27.0798,12.29975 7.9157,-0.0247 13.04374,-2.33427 26.77161,-12.05721 21.74323,-15.3999 29.63018,-15.06648 54.09067,2.28671 10.76881,7.6398 15.78745,9.75064 23.18268,9.75064 7.67371,0 12.12746,-1.97568 25.40403,-11.26925 22.76549,-15.93577 30.33812,-15.91227 53.34156,0.16557 13.05931,9.12756 17.54112,11.10368 25.18298,11.10368 7.68601,0 13.15443,-2.41352 25.63571,-11.31454 22.30174,-15.90449 30.05997,-15.87248 53.10988,0.21911 13.06693,9.12227 17.54536,11.09543 25.18297,11.09543 7.44461,0 13.42985,-2.50323 23.18672,-9.69754 3.98804,-2.94061 10.81065,-7.21174 15.16133,-9.49139 13.49492,-7.071 20.80631,-5.60769 40.39755,8.08525 13.0593,9.12756 17.54112,11.10368 25.18297,11.10368 7.74551,0 13.25324,-2.41638 25.63572,-11.24708 13.58487,-9.68821 20.3476,-12.48806 28.51421,-11.80525 6.71981,0.56184 10.44739,2.48841 30.33469,15.67813 4.73558,3.14076 11.04775,6.28161 14.02705,6.97969 l 5.4169,1.26921 0,7.79105 c 0,6.6263 -0.36254,7.78712 -2.425,7.76459 -4.44593,-0.0486 -13.40345,-4.5164 -23.90357,-11.92265 -12.47139,-8.7967 -18.26524,-11.36317 -25.63571,-11.35569 -6.99483,0.007 -12.72927,2.55922 -24.93668,11.09814 -22.90087,16.01882 -30.95571,16.05771 -53.35618,0.25755 -12.408,-8.752 -18.18068,-11.32345 -25.61874,-11.41197 -7.29728,-0.0868 -13.04616,2.48606 -25.65269,11.48079 -22.02576,15.71533 -30.63138,15.71533 -52.65714,0 -21.67458,-15.46476 -29.78001,-15.38967 -51.96428,0.4815 -21.2191,15.18066 -30.07675,15.09941 -51.89051,-0.47599 -21.64303,-15.45347 -30.03799,-15.37082 -52.1718,0.51364 -21.09837,15.14137 -30.00664,15.05215 -51.83054,-0.51915 -12.39412,-8.84318 -18.20818,-11.43334 -25.63572,-11.4207 -7.09634,0.0121 -14.49092,3.34852 -26.4623,11.93985 -20.91783,15.0118 -30.11145,15.00504 -51.1377,-0.0376 -12.12821,-8.67682 -19.23633,-11.89015 -26.32857,-11.90221 -7.43546,-0.0127 -13.40432,2.64013 -25.70948,11.42622 -10.29609,7.35156 -19.23928,11.79816 -23.8298,11.84829 -2.06321,0.0225 -2.425,-1.13941 -2.425,-7.78809 z m 0,-67.99515 0,-8.28632 5.19643,-0.74466 c 3.24188,-0.46457 8.5843,-3.04049 14.20357,-6.84845 18.02429,-12.21437 24.88631,-15.62483 31.43791,-15.62483 8.52215,0 14.68363,2.57838 26.52014,11.09783 22.37082,16.10164 30.07777,16.01808 53.85246,-0.58386 12.1947,-8.51559 16.88604,-10.51397 24.68234,-10.51397 7.92835,0 12.63639,2.04463 24.95044,10.83564 12.75917,9.10877 19.33711,12.07408 26.7839,12.07408 7.82595,0 12.49068,-2.02385 25.1728,-10.92153 13.47027,-9.45064 19.1928,-11.98819 27.03504,-11.98819 7.90972,0 12.62139,2.04557 24.92925,10.82305 12.15565,8.66893 19.79346,12.08667 27.01073,12.08667 7.79165,0 12.88162,-2.18879 24.95355,-10.73053 22.72318,-16.07826 30.49004,-16.25468 52.36046,-1.18934 14.43876,9.94608 18.88568,11.91987 26.8552,11.91987 7.44679,0 14.02473,-2.96531 26.7839,-12.07408 12.19818,-8.70828 17.04244,-10.84247 24.53519,-10.80916 7.90219,0.0351 14.88567,3.0698 27.43668,11.92265 12.6548,8.92608 17.32742,10.96059 25.1728,10.96059 7.3931,0 14.13157,-3.00859 26.09862,-11.65253 11.1847,-8.07882 18.56566,-11.25719 26.14203,-11.25719 7.28421,0 12.14975,2.11598 24.17603,10.51397 11.43034,7.98185 19.97844,12.36173 24.16408,12.38122 2.93481,0.0136 3.11786,0.51008 3.11786,8.45496 0,5.96262 -0.5085,8.43265 -1.73214,8.41395 -4.0615,-0.0621 -14.49606,-5.29128 -24.37537,-12.21549 -21.60503,-15.14257 -30.16898,-15.35586 -49.68327,-1.23742 -23.47832,16.98638 -30.89997,17.31663 -52.56753,2.33913 -23.70047,-16.38273 -31.42383,-16.76412 -51.10619,-2.52367 -19.1325,13.8426 -26.16669,15.85396 -38.3168,10.95633 -4.0685,-1.63998 -11.76226,-6.12435 -17.09726,-9.96525 -20.40785,-14.69252 -29.32535,-14.87469 -48.51451,-0.99108 -14.70711,10.64078 -19.55991,12.93283 -27.49178,12.98483 -8.89852,0.0584 -13.96468,-2.09172 -27.22943,-11.5561 -21.71724,-15.49521 -29.15671,-15.53291 -51.27142,-0.25989 -15.14921,10.46247 -17.56816,11.57458 -25.50542,11.72611 -8.81166,0.16823 -13.79505,-1.93625 -27.15172,-11.46622 -22.16909,-15.81758 -28.77818,-15.67781 -53.17061,1.12447 -21.82132,15.03123 -28.86714,14.68974 -52.83653,-2.56082 -19.42444,-13.9796 -27.75516,-13.73788 -49.41393,1.43377 -9.88088,6.92142 -20.31631,12.14924 -24.37536,12.2113 -1.22063,0.0186 -1.73214,-2.42051 -1.73214,-8.25984 z m 0,-67.55442 0,-8.06335 6.17293,-1.43662 c 3.95597,-0.92067 10.24062,-4.2942 17.49904,-9.39331 13.99426,-9.83108 20.69322,-12.9375 28.09389,-13.0276 7.48703,-0.0912 13.31804,2.49318 25.90791,11.48256 22.00192,15.70974 30.22219,15.69812 52.58337,-0.0743 12.46604,-8.79293 18.26136,-11.36131 25.63571,-11.36131 7.50119,0 13.09405,2.52241 27.31811,12.32058 6.63317,4.56923 14.04983,8.91118 16.48145,9.64877 10.43526,3.16538 18.79428,0.67806 33.80044,-10.05772 22.04807,-15.77373 30.03065,-15.85081 52.17368,-0.50379 22.36911,15.50372 29.93948,15.67184 50.68506,1.12561 23.77916,-16.67331 30.7616,-16.77052 53.72697,-0.74801 5.335,3.72213 12.23527,7.83794 15.33393,9.14626 10.98448,4.63784 19.1644,2.55601 35.9375,-9.14626 22.45584,-15.66703 30.01818,-15.7613 51.80129,-0.64585 6.79819,4.71731 14.58448,9.38557 17.30288,10.3739 10.62654,3.86349 19.31508,1.47022 34.67102,-9.5502 20.73892,-14.88361 29.59337,-15.679 46.68175,-4.19336 14.90574,10.01861 22.54416,14.23796 27.26091,15.0585 l 4.50357,0.78345 0,8.31268 0,8.31267 -3.81071,-0.79508 c -6.2018,-1.29395 -10.31841,-3.47862 -22.62869,-12.00892 -22.34456,-15.48348 -29.06502,-15.37136 -52.3062,0.87264 -13.0929,9.15104 -17.53103,11.07767 -25.3252,10.99389 -7.93561,-0.0852 -12.28603,-2.02198 -25.84587,-11.50584 -22.22957,-15.54755 -29.57154,-15.59777 -51.39406,-0.35152 -22.32168,15.59498 -30.17144,15.98062 -49.29999,2.42199 -22.95549,-16.27124 -32.02184,-17.3881 -49.07619,-6.04561 -23.71626,15.77322 -28.8677,17.68292 -39.16872,14.52045 -6.33618,-1.94524 -11.11478,-4.68055 -22.03007,-12.61025 -8.98532,-6.52759 -16.40358,-9.67896 -22.56488,-9.58582 -5.41904,0.0819 -14.84518,3.29135 -19.28385,6.5658 -8.64478,6.37735 -16.10696,11.36018 -20.51216,13.69688 -6.36454,3.37603 -18.31109,3.51408 -24.40245,0.28201 -5.22165,-2.7706 -16.44625,-10.16799 -19.62289,-12.93213 -3.64314,-3.17007 -15.80779,-7.65522 -20.79757,-7.66815 -6.83705,-0.0177 -12.28273,2.44051 -25.13394,11.34566 -14.64341,10.14702 -18.40581,11.83054 -26.4394,11.83054 -8.079,0 -13.26565,-2.27672 -26.15041,-11.47889 -12.48849,-8.91924 -18.55448,-11.70915 -25.45853,-11.70915 -7.61751,0 -12.7174,2.23635 -25.84583,11.33366 -13.14699,9.11016 -15.54746,10.38358 -21.93763,11.63766 l -4.53617,0.89022 0,-8.06337 z m 0,-67.96637 0,-7.55452 6.82859,-2.11037 c 3.75573,-1.1607 12.01805,-5.70805 18.36072,-10.10521 23.72689,-16.44908 29.85151,-16.39725 54.23639,0.45891 11.36963,7.85932 19.02165,11.22841 25.3565,11.16416 4.87787,-0.0494 14.60979,-4.75527 25.25387,-12.2113 11.78045,-8.25203 19.56859,-11.81143 25.93114,-11.85125 5.96411,-0.0374 16.43611,4.8754 26.8181,12.58114 20.04432,14.87736 28.65582,14.83742 50.39438,-0.23376 23.57779,-16.3463 29.74969,-16.28344 54.10315,0.55101 11.36963,7.85932 19.02164,11.22841 25.35649,11.16416 4.81014,-0.0488 14.79507,-4.81023 24.6747,-11.7664 11.66652,-8.21433 20.46772,-12.32263 26.39873,-12.32263 6.04456,0 16.54122,4.87194 26.3658,12.23745 4.57286,3.42828 11.62932,7.55956 15.68102,9.18059 11.02293,4.41014 16.86533,3.25057 30.84907,-6.12274 28.99165,-19.43312 33.57881,-19.66567 57.71164,-2.92565 6.26937,4.34883 14.28861,8.86726 17.82053,10.04096 9.10201,3.02471 16.40486,1.10731 29.36895,-7.71092 27.53764,-18.73123 33.33767,-18.95523 56.99307,-2.201 6.27043,4.44111 14.15071,8.8087 18.0895,10.02598 l 6.97907,2.15687 0,7.55452 c 0,7.03477 -0.21451,7.55352 -3.11786,7.53999 -4.18564,-0.0195 -12.73374,-4.39938 -24.16408,-12.38122 -12.1947,-8.5156 -16.88604,-10.51398 -24.68234,-10.51398 -7.92356,0 -12.63065,2.04248 -24.94286,10.82305 -22.73756,16.21554 -30.70435,16.17019 -54.30337,-0.30907 -12.1947,-8.5156 -16.88604,-10.51398 -24.68234,-10.51398 -7.92806,0 -12.34838,1.95379 -26.21909,11.58885 -13.29727,9.23672 -18.09177,11.32531 -25.95462,11.30635 -7.11269,-0.0171 -13.64438,-3.00431 -27.07252,-12.38122 -12.19038,-8.51258 -16.8862,-10.51398 -24.66873,-10.51398 -7.84225,0 -13.56477,2.53756 -27.03504,11.98819 -12.68724,8.90128 -17.35594,10.92581 -25.15228,10.90701 -7.11269,-0.0171 -13.64438,-3.00431 -27.07252,-12.38122 -12.1947,-8.5156 -16.88603,-10.51398 -24.68234,-10.51398 -7.7963,0 -12.48764,1.99838 -24.68234,10.51398 -23.60297,16.48203 -30.87153,16.55484 -53.82792,0.53926 -13.00422,-9.07242 -17.55934,-11.05324 -25.41831,-11.05324 -7.7963,0 -12.48764,1.99838 -24.68234,10.51398 -22.96674,16.03775 -31.38132,16.37622 -51.56098,2.07399 -13.80312,-9.78289 -19.89081,-12.58797 -27.31889,-12.58797 -8.26603,0 -14.09482,2.50147 -26.56119,11.39888 -10.43443,7.4472 -18.5339,11.51085 -22.94282,11.51085 -2.54426,0 -2.82663,-0.75467 -2.82663,-7.55452 z m 0,-67.84426 c 0,-5.24881 0.5777,-8.03024 1.73214,-8.33972 0.95268,-0.25538 3.41759,-0.78487 5.47757,-1.17664 2.05999,-0.39178 7.67213,-3.39409 12.47143,-6.67181 18.13248,-12.3837 22.89231,-14.84317 29.85228,-15.4251 8.82725,-0.73805 13.73985,1.20471 27.95575,11.0555 14.6434,10.14702 18.40581,11.83055 26.4394,11.83055 7.98361,0 11.48049,-1.56729 26.32857,-11.80038 13.14191,-9.0572 18.38808,-11.3876 25.63571,-11.3876 7.25316,0 12.51072,2.33937 25.52489,11.35743 14.64341,10.14702 18.40582,11.83055 26.4394,11.83055 8.03358,0 11.79599,-1.68353 26.4394,-11.83055 13.01417,-9.01806 18.27172,-11.35743 25.52488,-11.35743 7.25316,0 12.51071,2.33937 25.52488,11.35743 14.64342,10.14702 18.40582,11.83055 26.43941,11.83055 8.03358,0 11.79598,-1.68353 26.4394,-11.83055 13.01417,-9.01806 18.27172,-11.35743 25.52488,-11.35743 7.25316,0 12.51071,2.33937 25.52488,11.35743 14.64341,10.14702 18.40582,11.83055 26.4394,11.83055 8.03358,0 11.79599,-1.68353 26.4394,-11.83055 13.01417,-9.01806 18.27173,-11.35743 25.52489,-11.35743 7.32729,0 12.51519,2.34298 26.32857,11.89064 13.68279,9.45739 22.26717,12.63198 30.03553,11.10743 6.53696,-1.28287 8.87581,-2.51878 22.07399,-11.66441 14.181,-9.82669 19.09811,-11.76944 27.92134,-11.03173 6.95997,0.58193 11.7198,3.0414 29.85227,15.4251 4.79931,3.27772 10.41146,6.28003 12.47143,6.67181 2.05999,0.39177 4.5249,0.92126 5.47758,1.17664 1.15444,0.30948 1.73214,3.09091 1.73214,8.33972 0,6.26986 -0.43283,7.87538 -2.12308,7.87538 -4.5201,0 -12.70406,-3.9911 -22.2019,-10.82727 -13.90476,-10.00809 -19.22659,-12.50575 -26.79048,-12.57337 -8.12741,-0.0727 -13.7034,2.34722 -26.55831,11.52584 -21.89998,15.63695 -29.38657,15.75664 -50.90844,0.81392 -15.16599,-10.52982 -18.86408,-12.24258 -26.61779,-12.32812 -7.89703,-0.0871 -13.33819,2.2771 -26.32857,11.43986 -16.55126,11.67442 -24.80583,14.04653 -35.43369,10.18255 -2.67244,-0.97161 -10.7875,-5.84081 -18.03345,-10.82042 -22.44338,-15.42366 -28.16334,-15.15301 -53.36045,2.52484 -18.65394,13.08727 -29.27148,13.23561 -45.99296,0.64254 -9.86727,-7.43109 -17.72534,-11.85313 -23.94459,-13.4745 -8.71602,-2.27229 -15.17773,-0.0729 -30.28199,10.30712 -7.24595,4.97961 -15.36101,9.84881 -18.03345,10.82042 -10.28471,3.73922 -19.39595,1.36893 -33.35512,-8.67737 -22.67813,-16.32125 -30.14259,-17.13307 -47.80714,-5.19942 -29.33867,19.82035 -35.18382,20.19871 -58.2,3.76731 -12.8971,-9.20732 -18.37047,-11.60071 -26.32857,-11.51293 -7.7524,0.0855 -11.81614,1.91793 -24.94286,11.24714 -10.52372,7.47924 -19.73793,12.14186 -23.99465,12.14186 -1.94986,0 -2.33392,-1.29595 -2.33392,-7.87538 z m 0,-68.08845 c 0,-7.69153 0.2508,-8.44043 2.82663,-8.44043 4.38899,0 12.21949,-3.93639 22.67535,-11.39888 12.304,-8.78153 18.57843,-11.51085 26.4623,-11.51085 7.82721,0 13.55858,2.54275 27.02143,11.98819 12.5724,8.8207 17.35461,10.92154 24.86106,10.92154 7.25326,0 13.53252,-2.79773 25.58378,-11.39888 12.31111,-8.78661 18.57709,-11.51085 26.47591,-11.51085 7.78253,0 12.47836,2.0014 24.66873,10.51398 13.3737,9.33889 19.96849,12.36407 26.99072,12.38123 7.4534,0.0182 13.64707,-2.7155 25.7932,-11.38436 12.31112,-8.78661 18.5771,-11.51085 26.47592,-11.51085 7.78253,0 12.47836,2.0014 24.66873,10.51398 23.49019,16.40327 31.12973,16.53069 53.05139,0.8849 12.28389,-8.76718 18.33158,-11.39888 26.19484,-11.39888 7.86326,0 13.91095,2.6317 26.19483,11.39888 21.58202,15.40338 30.83119,15.37739 51.85957,-0.14573 11.34027,-8.37137 17.96978,-11.25315 25.88778,-11.25315 7.78253,0 12.47835,2.0014 24.66873,10.51398 23.80374,16.62223 30.76014,16.62223 54.56388,0 12.19038,-8.51258 16.88621,-10.51398 24.66874,-10.51398 7.89882,0 14.1648,2.72424 26.47591,11.51085 10.45587,7.46249 18.28636,11.39888 22.67534,11.39888 2.57584,0 2.82664,0.7489 2.82664,8.44043 0,5.96261 -0.5085,8.43265 -1.73214,8.41394 -4.13689,-0.0632 -14.88318,-5.46006 -24.14187,-12.12411 -11.05332,-7.95573 -19.70589,-11.89813 -26.20185,-11.93843 -5.83702,-0.0362 -14.66715,4.08835 -26.32439,12.29614 -10.50744,7.39822 -19.94841,11.73992 -25.52832,11.73992 -5.65658,0 -14.8142,-4.27401 -26.10751,-12.18481 -22.21167,-15.55896 -29.50188,-15.55896 -51.71355,0 -11.29331,7.9108 -20.45092,12.18481 -26.10751,12.18481 -5.65658,0 -14.8142,-4.27401 -26.1075,-12.18481 -22.21167,-15.55896 -29.50189,-15.55896 -51.71356,0 -11.29331,7.9108 -20.45092,12.18481 -26.1075,12.18481 -5.57992,0 -15.02088,-4.3417 -25.52833,-11.73992 -11.65723,-8.20779 -20.48737,-12.33235 -26.32438,-12.29614 -6.50073,0.0403 -15.1506,3.98417 -26.23263,11.96059 -21.49752,15.47307 -29.61657,15.50771 -51.47277,0.21961 -22.68583,-15.86841 -29.94653,-15.91123 -52.22147,-0.30799 -22.4496,15.72559 -29.63647,15.69822 -52.40613,-0.19957 -21.9576,-15.3308 -30.11508,-15.28888 -51.72598,0.26579 -9.2587,6.66405 -20.005,12.06086 -24.14188,12.12411 -1.22364,0.0187 -1.73214,-2.45133 -1.73214,-8.41394 z m 0.0119,-67.82485 0.0118,-7.5361 7.95601,-2.13229 c 4.8336,-1.29545 12.29175,-2.12358 19.00363,-2.1101 10.82698,0.0217 10.97919,0.0632 7.62143,2.07635 -1.88441,1.1298 -7.15353,4.73594 -11.70916,8.01364 -8.5788,6.1723 -15.2229,9.22459 -20.07967,9.22459 -2.53166,0 -2.81474,-0.76076 -2.80409,-7.53609 z m 89.15954,3.58862 c -3.69677,-2.1711 -10.38601,-6.55074 -14.86498,-9.73253 l -8.14358,-5.78506 12.99358,0.51211 c 7.14647,0.28166 15.64377,1.2465 18.88287,2.1441 4.95156,1.37213 6.82702,1.37213 11.77857,0 3.23911,-0.8976 11.81322,-1.85197 19.05357,-2.12084 12.87488,-0.4781 13.08813,-0.4423 9.7,1.6284 -1.90535,1.16448 -7.19162,4.799 -11.74725,8.0767 -10.10687,7.27171 -15.20841,9.22459 -24.09756,9.22459 -5.42762,0 -8.2169,-0.81228 -13.55522,-3.94747 z m 103.92857,0 c -3.69677,-2.1711 -10.38601,-6.55074 -14.86497,-9.73253 l -8.1436,-5.78506 12.9936,0.51211 c 7.14646,0.28166 15.64375,1.2465 18.88286,2.1441 4.95156,1.37213 6.82701,1.37213 11.77857,0 3.23911,-0.8976 11.77173,-1.86316 18.96138,-2.1457 l 13.07211,-0.51372 -11.68639,8.09795 c -13.72326,9.50938 -18.214,11.37032 -27.43834,11.37032 -5.42762,0 -8.21691,-0.81228 -13.55522,-3.94747 z m 108.29289,2.26261 c -2.28643,-0.87476 -9.41601,-5.23388 -15.84352,-9.68694 l -11.6864,-8.09647 13.07211,0.51372 c 7.18965,0.28254 15.72227,1.2481 18.96138,2.1457 4.95156,1.37213 6.82701,1.37213 11.77857,0 3.23911,-0.8976 11.7549,-1.86282 18.92398,-2.14494 l 13.03471,-0.51295 -10.95614,7.59259 c -6.02586,4.17592 -13.11458,8.55593 -15.75269,9.73337 -5.61189,2.50467 -15.62294,2.71665 -21.532,0.45592 z m 103.18228,-0.45592 c -2.63811,-1.17744 -9.72683,-5.55745 -15.75269,-9.73337 l -10.95614,-7.59259 13.03471,0.51295 c 7.16907,0.28212 15.68487,1.24734 18.92398,2.14494 4.95156,1.37213 6.82701,1.37213 11.77857,0 3.23911,-0.8976 11.77172,-1.86316 18.96138,-2.1457 l 13.07211,-0.51372 -11.6864,8.09795 c -6.42751,4.45387 -13.69296,8.83423 -16.14544,9.73414 -6.17762,2.26678 -15.51803,2.04477 -21.23008,-0.5046 z m 103.92856,0 c -2.6381,-1.17744 -9.72682,-5.55745 -15.75268,-9.73337 l -10.95614,-7.59259 13.03471,0.51295 c 7.16907,0.28212 15.68487,1.24734 18.92398,2.14494 4.95155,1.37213 6.82701,1.37213 11.77857,0 3.2391,-0.8976 11.77172,-1.86316 18.96138,-2.1457 l 13.0721,-0.51372 -11.57556,8.00052 c -6.36655,4.40029 -13.30927,8.78065 -15.42828,9.73414 -5.28884,2.37982 -16.2677,2.17716 -22.05808,-0.40717 z m 103.92857,0 c -2.63811,-1.17744 -9.67009,-5.51823 -15.62663,-9.6462 l -10.83006,-7.50542 10.83006,-0.0222 c 6.50441,-0.0133 14.0078,0.82948 18.78608,2.1101 l 7.956,2.13229 0.0125,7.5361 c 0.0111,7.05198 -0.19187,7.53609 -3.15945,7.53609 -1.74421,0 -5.32974,-0.96335 -7.96785,-2.14078 z"
       id="path3347"
       inkscape:connector-curvature="0" />
  </g>
</svg>
