<?xml version="1.0" encoding="UTF-8" standalone="no"?>
<svg
   xmlns:dc="http://purl.org/dc/elements/1.1/"
   xmlns:cc="http://creativecommons.org/ns#"
   xmlns:rdf="http://www.w3.org/1999/02/22-rdf-syntax-ns#"
   xmlns:svg="http://www.w3.org/2000/svg"
   xmlns="http://www.w3.org/2000/svg"
   xmlns:sodipodi="http://sodipodi.sourceforge.net/DTD/sodipodi-0.dtd"
   xmlns:inkscape="http://www.inkscape.org/namespaces/inkscape"
   version="1.1"
   id="svg4239"
   viewBox="0 0 33.000041 39.000164"
   height="11.006713mm"
   width="9.313345mm"
   inkscape:version="0.91 r13725"
   sodipodi:docname="clients.svg">
  <sodipodi:namedview
     pagecolor="#ffffff"
     bordercolor="#666666"
     borderopacity="1"
     objecttolerance="10"
     gridtolerance="10"
     guidetolerance="10"
     inkscape:pageopacity="0"
     inkscape:pageshadow="2"
     inkscape:window-width="689"
     inkscape:window-height="480"
     id="namedview7"
     showgrid="false"
     inkscape:zoom="6.0512566"
     inkscape:cx="6.343052"
     inkscape:cy="19.500082"
     inkscape:window-x="0"
     inkscape:window-y="0"
     inkscape:window-maximized="0"
     inkscape:current-layer="svg4239" />
  <defs
     id="defs4241" />
  <metadata
     id="metadata4244">
    <rdf:RDF>
      <cc:Work
         rdf:about="">
        <dc:format>image/svg+xml</dc:format>
        <dc:type
           rdf:resource="http://purl.org/dc/dcmitype/StillImage" />
        <dc:title></dc:title>
      </cc:Work>
    </rdf:RDF>
  </metadata>
  <g
     transform="translate(-339.46857,-359.22251)"
     id="layer1"
     style="fill:#3e3d3d;fill-opacity:1">
    <path
       id="path4226"
       d="m 354.46851,398.21493 c -0.0167,-0.008 -0.33539,-0.045 -0.70824,-0.0833 -0.72315,-0.0742 -1.03598,-0.14083 -1.39981,-0.29822 -0.12512,-0.0541 -0.32986,-0.12345 -0.45498,-0.15406 -0.52921,-0.12946 -0.72765,-0.19776 -0.98578,-0.33929 -0.15014,-0.0823 -0.36884,-0.17151 -0.48601,-0.19819 -0.27878,-0.0635 -0.36194,-0.10043 -0.53357,-0.23711 -0.17897,-0.14253 -0.35539,-0.2428 -0.57137,-0.32476 -0.0926,-0.0351 -0.22354,-0.10765 -0.29107,-0.16118 -0.0675,-0.0535 -0.23815,-0.16323 -0.37914,-0.2438 -0.141,-0.0806 -0.33298,-0.21421 -0.42662,-0.29698 -0.0937,-0.0828 -0.25061,-0.20729 -0.34882,-0.27673 -0.23008,-0.16267 -0.43035,-0.33228 -0.66479,-0.56299 -0.10334,-0.10171 -0.336,-0.32866 -0.51701,-0.50433 -0.18101,-0.17567 -0.38618,-0.38409 -0.45593,-0.46314 -0.0697,-0.079 -0.17696,-0.18791 -0.23825,-0.2419 -0.1197,-0.10545 -0.5788,-0.64298 -0.88975,-1.04177 -0.10503,-0.1347 -0.2331,-0.33767 -0.28459,-0.45103 -0.0515,-0.11336 -0.16114,-0.29586 -0.24366,-0.40555 -0.0825,-0.1097 -0.19614,-0.30093 -0.25248,-0.42496 -0.0563,-0.12402 -0.15783,-0.29643 -0.22552,-0.38312 -0.1509,-0.19326 -0.18237,-0.26103 -0.28936,-0.62312 -0.0465,-0.15718 -0.12679,-0.35154 -0.17855,-0.4319 -0.17701,-0.27484 -0.19971,-0.33001 -0.28668,-0.69689 -0.0525,-0.22126 -0.1482,-0.50223 -0.24074,-0.70642 -0.15685,-0.3461 -0.1971,-0.5166 -0.23347,-0.98901 -0.0107,-0.13869 -0.0658,-0.51464 -0.12255,-0.83544 -0.16876,-0.95436 -0.32167,-1.2163 -0.81378,-1.39394 -0.14883,-0.0537 -0.34071,-0.15526 -0.45037,-0.23831 -0.10508,-0.0796 -0.25805,-0.17744 -0.33994,-0.21746 -0.29234,-0.14286 -0.98967,-0.87227 -1.17758,-1.23177 -0.0677,-0.12944 -0.18887,-0.33489 -0.26936,-0.45656 -0.2565,-0.38777 -0.24025,-0.0543 -0.23983,-4.92289 2.4e-4,-2.41261 0.0134,-4.53256 0.03,-4.82471 0.029,-0.5112 0.0331,-0.53267 0.2141,-1.12632 0.13172,-0.43207 0.2055,-0.74367 0.25791,-1.08928 0.0736,-0.48519 0.12851,-0.65539 0.33306,-1.03193 0.0411,-0.0756 0.10979,-0.28746 0.15264,-0.47071 0.0429,-0.18324 0.10268,-0.37855 0.13295,-0.43403 0.0303,-0.0555 0.10404,-0.18976 0.16394,-0.29842 0.0599,-0.10865 0.14556,-0.3039 0.19036,-0.43387 0.0448,-0.12997 0.15454,-0.35458 0.24385,-0.49913 0.0893,-0.14456 0.19725,-0.35025 0.23986,-0.45711 0.0426,-0.10685 0.15021,-0.30019 0.2391,-0.42963 0.0889,-0.12944 0.20689,-0.31856 0.26222,-0.42027 0.0553,-0.10171 0.16408,-0.26813 0.24165,-0.36984 0.0776,-0.1017 0.18363,-0.25507 0.23569,-0.34081 0.0521,-0.0857 0.16066,-0.23703 0.24134,-0.33621 0.0807,-0.0992 0.20925,-0.27111 0.28572,-0.38206 0.12544,-0.18198 0.24643,-0.31707 0.78522,-0.87667 0.0904,-0.0938 0.25482,-0.28296 0.36549,-0.42027 0.11067,-0.13731 0.27941,-0.30261 0.37498,-0.36733 0.0956,-0.0647 0.27174,-0.21602 0.39146,-0.33621 0.11973,-0.1202 0.30255,-0.30319 0.40627,-0.40666 0.10373,-0.10346 0.26015,-0.23097 0.34761,-0.28336 0.0875,-0.0524 0.22045,-0.15145 0.29552,-0.22012 0.0751,-0.0687 0.21839,-0.17474 0.31848,-0.23571 0.1001,-0.061 0.25707,-0.17526 0.34882,-0.254 0.0917,-0.0787 0.27602,-0.19814 0.40948,-0.26536 0.13346,-0.0672 0.28767,-0.16014 0.3427,-0.20649 0.055,-0.0464 0.2393,-0.15755 0.40948,-0.24711 0.17018,-0.0896 0.37085,-0.20948 0.44592,-0.26651 0.0751,-0.057 0.26744,-0.14877 0.42748,-0.20387 0.18191,-0.0626 0.36738,-0.1558 0.49478,-0.24856 0.19876,-0.1447 0.32848,-0.1927 0.78428,-0.29023 0.0961,-0.0206 0.30219,-0.10973 0.4579,-0.19814 0.22475,-0.1276 0.34501,-0.17231 0.58349,-0.21692 0.66655,-0.12468 0.83177,-0.16684 1.19631,-0.30524 0.45199,-0.17159 0.47724,-0.17652 1.12709,-0.21991 0.27853,-0.0186 0.60611,-0.0571 0.72796,-0.0857 0.32795,-0.0768 3.54262,-0.0768 3.87057,0 0.12185,0.0285 0.44943,0.0671 0.72796,0.0857 0.64985,0.0434 0.6751,0.0483 1.12709,0.21991 0.36454,0.1384 0.52976,0.18056 1.19631,0.30524 0.23848,0.0446 0.35874,0.0893 0.58349,0.21692 0.15571,0.0884 0.36176,0.17757 0.4579,0.19814 0.45579,0.0975 0.58552,0.14553 0.78428,0.29023 0.12745,0.0928 0.31278,0.18589 0.49478,0.24852 0.17464,0.0601 0.36343,0.15379 0.47217,0.23431 0.0996,0.0738 0.25661,0.16762 0.34881,0.20849 0.18962,0.0841 0.3613,0.19587 0.51543,0.3357 0.0578,0.0525 0.19203,0.12743 0.29823,0.16661 0.10905,0.0402 0.27452,0.13982 0.38017,0.22883 0.10289,0.0867 0.26897,0.20771 0.36906,0.26894 0.1001,0.0612 0.24342,0.16753 0.31849,0.23621 0.0751,0.0687 0.20805,0.16773 0.29551,0.22012 0.0875,0.0524 0.24389,0.1799 0.34762,0.28336 0.10372,0.10347 0.28654,0.28646 0.40627,0.40666 0.11972,0.12019 0.29588,0.27149 0.39145,0.33621 0.0956,0.0647 0.26432,0.23002 0.37499,0.36733 0.11067,0.13731 0.27514,0.32643 0.36549,0.42027 0.53879,0.5596 0.65978,0.69469 0.78522,0.87667 0.0765,0.11095 0.20505,0.28288 0.28572,0.38206 0.0807,0.0992 0.18961,0.25047 0.24208,0.33621 0.0525,0.0857 0.16079,0.24361 0.24073,0.35082 0.0799,0.10721 0.18695,0.2812 0.23778,0.38665 0.0508,0.10545 0.1627,0.2825 0.2486,0.39345 0.0859,0.11095 0.19583,0.29822 0.24429,0.41615 0.0485,0.11792 0.16025,0.33118 0.24843,0.47391 0.0882,0.14273 0.19699,0.36584 0.2418,0.49581 0.0448,0.12997 0.13047,0.32522 0.19036,0.43387 0.0599,0.10866 0.13367,0.24295 0.16393,0.29842 0.0303,0.0555 0.0901,0.25079 0.13296,0.43403 0.0429,0.18325 0.11154,0.39506 0.15263,0.47071 0.20448,0.37638 0.25951,0.54683 0.33319,1.03193 0.0404,0.26625 0.10896,0.59756 0.15228,0.73625 0.27845,0.89156 0.3416,1.36305 0.36252,2.70654 0.009,0.56451 0.0266,0.87257 0.0591,1.02546 0.0398,0.18689 0.0466,0.61053 0.0469,2.92508 3.1e-4,1.66917 -0.0111,2.75809 -0.0296,2.84103 -0.0165,0.074 -0.0495,0.37656 -0.0735,0.67243 -0.0507,0.62624 -0.0971,0.82223 -0.24553,1.03774 -0.0595,0.0864 -0.16996,0.274 -0.2455,0.41699 -0.21521,0.40736 -0.90274,1.13909 -1.21252,1.29047 -0.0814,0.0398 -0.23393,0.13741 -0.33901,0.217 -0.10966,0.083 -0.30154,0.18459 -0.45037,0.23831 -0.32837,0.11854 -0.45454,0.23613 -0.59754,0.55692 -0.1206,0.27055 -0.22041,0.74629 -0.32622,1.55479 -0.0798,0.60984 -0.12073,0.7815 -0.27312,1.14537 -0.0692,0.16519 -0.16515,0.46567 -0.21327,0.66773 -0.0874,0.36691 -0.11012,0.42215 -0.28707,0.69689 -0.0518,0.0804 -0.1321,0.27472 -0.17855,0.4319 -0.10668,0.36103 -0.1386,0.43004 -0.28661,0.61959 -0.0662,0.0848 -0.17566,0.27126 -0.2433,0.41447 -0.0676,0.1432 -0.17778,0.32845 -0.24474,0.41167 -0.067,0.0832 -0.16508,0.23396 -0.21804,0.33499 -0.053,0.10104 -0.13958,0.2372 -0.19249,0.3026 -0.0529,0.0654 -0.16574,0.22241 -0.25073,0.34894 -0.17727,0.2639 -0.5772,0.72927 -0.94805,1.10319 -1.03031,1.03884 -1.34647,1.3342 -1.67738,1.56706 -0.0982,0.0691 -0.25518,0.19337 -0.34882,0.27613 -0.0936,0.0828 -0.28562,0.2164 -0.42662,0.29698 -0.14099,0.0806 -0.31161,0.19028 -0.37914,0.2438 -0.0675,0.0535 -0.19852,0.12605 -0.29107,0.16118 -0.21737,0.0825 -0.39255,0.18236 -0.57564,0.32816 -0.10832,0.0863 -0.22935,0.13945 -0.45984,0.20208 -0.20359,0.0553 -0.39799,0.13621 -0.55672,0.23166 -0.23125,0.13905 -0.35339,0.18086 -0.98453,0.33696 -0.12512,0.0309 -0.34351,0.10542 -0.48531,0.16549 -0.36192,0.15332 -0.61973,0.20945 -1.34976,0.29384 -0.54679,0.0632 -0.84524,0.0748 -2.10805,0.082 -0.8091,0.005 -1.48474,0.002 -1.50142,-0.005 z m 2.85118,-2.76948 c 0.13346,-0.0347 0.39279,-0.0735 0.5763,-0.0862 0.45717,-0.0315 0.87416,-0.12607 1.1903,-0.26984 0.14609,-0.0664 0.40549,-0.15774 0.57645,-0.20289 0.31575,-0.0834 0.49593,-0.16648 0.65978,-0.30423 0.05,-0.0421 0.23668,-0.12932 0.41473,-0.19387 0.20052,-0.0727 0.39348,-0.16987 0.50698,-0.25531 0.10079,-0.0759 0.26904,-0.17812 0.3739,-0.22723 0.10485,-0.0491 0.26572,-0.1469 0.35747,-0.21731 0.0918,-0.0704 0.26237,-0.19191 0.37915,-0.27 0.11677,-0.0781 0.28739,-0.2113 0.37914,-0.29604 0.0918,-0.0847 0.22142,-0.19874 0.28815,-0.25336 0.0667,-0.0546 0.18366,-0.1676 0.25985,-0.25109 0.0762,-0.0835 0.29938,-0.31067 0.49599,-0.50483 0.1966,-0.19417 0.3997,-0.42112 0.45132,-0.50433 0.0516,-0.0832 0.16405,-0.22895 0.24982,-0.32387 0.0858,-0.0949 0.19873,-0.25657 0.251,-0.35924 0.0523,-0.10267 0.15914,-0.26667 0.23748,-0.36444 0.0783,-0.0978 0.18735,-0.28552 0.24224,-0.41722 0.0549,-0.13169 0.15559,-0.32123 0.22378,-0.4212 0.0682,-0.1 0.15407,-0.25677 0.19084,-0.34846 0.0805,-0.20077 0.21566,-0.49505 0.36404,-0.79282 0.0832,-0.16688 0.12821,-0.32372 0.18697,-0.6511 0.0426,-0.23719 0.11248,-0.52407 0.15533,-0.6375 0.24413,-0.64624 0.27622,-0.87098 0.31747,-2.22355 0.0357,-1.1709 0.0563,-1.34913 0.16931,-1.4664 0.0754,-0.0782 0.0884,-0.0799 0.52711,-0.0693 0.43246,0.0104 0.46013,0.007 0.71765,-0.0897 0.14731,-0.0553 0.37704,-0.13379 0.5105,-0.17443 0.34413,-0.10479 0.42381,-0.15877 0.70222,-0.47571 0.30603,-0.34839 0.3264,-0.41379 0.32793,-1.05296 10e-4,-0.45017 -0.003,-0.47918 -0.0849,-0.66492 -0.0635,-0.14331 -0.14115,-0.24464 -0.29633,-0.38665 -0.35758,-0.32721 -0.56053,-0.46966 -0.72473,-0.50869 -0.0879,-0.0209 -0.47288,-0.0368 -0.89186,-0.0368 l -0.7372,0 -0.0803,-0.0824 c -0.0441,-0.0454 -0.0816,-0.10208 -0.0833,-0.12608 -0.002,-0.024 -0.005,-0.56516 -0.008,-1.20258 l -0.005,-1.15895 0.071,-0.0935 0.0709,-0.0934 0.96472,0 c 0.86275,0 0.9851,0.007 1.15749,0.0643 0.31579,0.10538 0.37453,0.11182 0.4981,0.0546 0.23252,-0.10769 0.28101,-0.26604 0.28347,-0.92583 0.001,-0.37756 -0.0111,-0.57208 -0.0456,-0.70606 -0.033,-0.12844 -0.0554,-0.43886 -0.0733,-1.01642 -0.0142,-0.45733 -0.0489,-1.04739 -0.0771,-1.31124 -0.0502,-0.46896 -0.0843,-0.60725 -0.26925,-1.09238 -0.0439,-0.11505 -0.11924,-0.43061 -0.16749,-0.70126 -0.0832,-0.46644 -0.0957,-0.50515 -0.24011,-0.74315 -0.14466,-0.23834 -0.2009,-0.38239 -0.27653,-0.70816 -0.0182,-0.0785 -0.10924,-0.2659 -0.20226,-0.41645 -0.093,-0.15056 -0.20759,-0.37715 -0.25461,-0.50354 -0.047,-0.12639 -0.15126,-0.3202 -0.23164,-0.43069 -0.0804,-0.11048 -0.19921,-0.31139 -0.26406,-0.44644 -0.0648,-0.13506 -0.17579,-0.31481 -0.24655,-0.39945 -0.0708,-0.0846 -0.16398,-0.21594 -0.20717,-0.29179 -0.0432,-0.0759 -0.15828,-0.23355 -0.25574,-0.35044 -0.0975,-0.11689 -0.23957,-0.30331 -0.31581,-0.41426 -0.15123,-0.22008 -0.21987,-0.29366 -1.07203,-1.1491 -0.59159,-0.59387 -0.75967,-0.74706 -0.96962,-0.8837 -0.0667,-0.0434 -0.18315,-0.13523 -0.25871,-0.20399 -0.0756,-0.0688 -0.21205,-0.17497 -0.30332,-0.236 -0.0913,-0.061 -0.23846,-0.17842 -0.3271,-0.26085 -0.0954,-0.0887 -0.25607,-0.19071 -0.39354,-0.24988 -0.1278,-0.055 -0.29215,-0.14757 -0.36522,-0.20571 -0.24899,-0.1981 -0.29339,-0.22421 -0.49603,-0.29177 -0.11149,-0.0372 -0.27528,-0.12177 -0.36398,-0.18801 -0.22985,-0.17162 -0.34545,-0.23021 -0.58102,-0.29445 -0.11407,-0.0311 -0.34697,-0.13118 -0.51756,-0.22239 -0.28526,-0.15252 -0.60779,-0.25938 -0.95613,-0.31681 -0.0738,-0.0122 -0.31267,-0.0886 -0.53081,-0.16993 -0.47276,-0.17621 -0.76814,-0.23944 -1.3369,-0.2862 -0.23355,-0.0192 -0.55431,-0.0571 -0.71279,-0.0843 -0.41118,-0.0705 -2.62199,-0.0705 -3.03317,0 -0.15848,0.0272 -0.47924,0.0651 -0.71279,0.0843 -0.56877,0.0468 -0.86414,0.10999 -1.33691,0.2862 -0.21814,0.0813 -0.457,0.15777 -0.5308,0.16993 -0.34834,0.0574 -0.67087,0.16429 -0.95613,0.31681 -0.17059,0.0912 -0.40349,0.19128 -0.51756,0.22239 -0.23556,0.0642 -0.35117,0.12283 -0.58102,0.29445 -0.0887,0.0662 -0.25249,0.15084 -0.36398,0.18801 -0.20264,0.0676 -0.24704,0.0937 -0.49604,0.29177 -0.0731,0.0581 -0.23741,0.1507 -0.36521,0.20571 -0.13747,0.0592 -0.29819,0.16122 -0.39354,0.24988 -0.0886,0.0824 -0.23584,0.19981 -0.3271,0.26085 -0.0913,0.061 -0.22776,0.16723 -0.30332,0.236 -0.0756,0.0688 -0.19198,0.16056 -0.25871,0.20399 -0.20995,0.13664 -0.37804,0.28983 -0.96963,0.8837 -0.86891,0.87227 -0.92014,0.92769 -1.10881,1.19953 -0.0963,0.13869 -0.23332,0.31259 -0.30458,0.38645 -0.0713,0.0739 -0.17705,0.21656 -0.23508,0.31712 -0.058,0.10055 -0.15619,0.24438 -0.21814,0.31961 -0.062,0.0752 -0.16573,0.24727 -0.23061,0.38233 -0.0649,0.13505 -0.18374,0.33596 -0.26413,0.44644 -0.0804,0.11049 -0.18462,0.3043 -0.23164,0.43069 -0.047,0.12639 -0.1616,0.35298 -0.25462,0.50354 -0.093,0.15055 -0.18403,0.33796 -0.20225,0.41645 -0.0756,0.32577 -0.13187,0.46982 -0.27652,0.70816 -0.14445,0.238 -0.15696,0.27671 -0.24012,0.74315 -0.0482,0.27065 -0.12362,0.58621 -0.16749,0.70126 -0.19814,0.51961 -0.2186,0.60962 -0.28278,1.24405 -0.0776,0.76736 -0.0835,1.38415 -0.0157,1.63748 0.0802,0.29928 0.26377,0.43964 0.43905,0.33566 0.0831,-0.0493 0.16602,-0.24597 0.24106,-0.57174 0.0356,-0.15468 0.0772,-0.30689 0.0923,-0.33824 0.0714,-0.1479 0.52393,-0.68489 0.73816,-0.87597 0.33488,-0.29866 0.41048,-0.351 0.67569,-0.46779 0.12847,-0.0566 0.27212,-0.13326 0.31922,-0.17044 0.15159,-0.11965 0.43922,-0.22892 0.74374,-0.28255 0.16332,-0.0288 0.44708,-0.0887 0.63059,-0.13317 0.18351,-0.0445 0.48379,-0.11319 0.6673,-0.15268 0.1835,-0.0395 0.38824,-0.0861 0.45497,-0.10345 0.17669,-0.0461 2.44975,-0.11657 3.12416,-0.0969 1.26093,0.0368 4.49268,0.002 4.74691,-0.0505 0.0584,-0.0122 0.21536,-0.0448 0.34881,-0.0725 0.13346,-0.0277 0.42692,-0.10962 0.65214,-0.18205 0.22521,-0.0724 0.51622,-0.14666 0.64668,-0.16495 0.2494,-0.035 0.45561,-0.11887 0.61041,-0.24831 0.051,-0.0426 0.1897,-0.1337 0.3083,-0.2024 0.36793,-0.21314 0.49425,-0.35245 0.94856,-1.04615 0.21833,-0.33338 0.24007,-0.40227 0.29187,-0.9246 0.0556,-0.56091 0.15616,-1.02325 0.24916,-1.14576 0.0402,-0.0529 0.12338,-0.11176 0.18487,-0.13069 0.17941,-0.0552 2.07715,-0.0457 2.19807,0.011 0.21987,0.10316 0.27516,0.31275 0.19333,0.73294 -0.0264,0.1357 -0.0623,0.39803 -0.0797,0.58295 -0.0487,0.51711 -0.0873,0.67992 -0.24358,1.02545 -0.0794,0.17568 -0.18768,0.47486 -0.24055,0.66485 -0.0767,0.27559 -0.12315,0.38098 -0.2298,0.52114 -0.0735,0.0966 -0.18404,0.26647 -0.24559,0.37742 -0.0616,0.11095 -0.16238,0.26225 -0.22406,0.33622 -0.0617,0.074 -0.17666,0.22929 -0.2555,0.34517 -0.14976,0.2201 -0.66905,0.67952 -1.01047,0.89397 -0.0963,0.0605 -0.25691,0.17186 -0.35701,0.24756 -0.10009,0.0757 -0.25706,0.16216 -0.34881,0.19213 -0.36839,0.12033 -0.457,0.15921 -0.65475,0.2873 -0.20813,0.13482 -0.35524,0.18065 -0.90733,0.28268 -0.38141,0.0705 -1.27098,0.27728 -1.47109,0.34198 -0.2186,0.0707 -1.67551,0.11264 -3.74596,0.1079 -0.83412,-0.002 -1.68038,-0.004 -1.88056,-0.004 -0.20019,-5.1e-4 -0.87583,0.007 -1.50142,0.0166 l -1.13744,0.0175 -0.34881,0.10419 c -0.19185,0.0573 -0.41024,0.13324 -0.48531,0.16877 -0.0751,0.0355 -0.2519,0.10701 -0.39295,0.15888 -0.23685,0.0871 -0.27222,0.11254 -0.46284,0.33301 -0.36531,0.42249 -0.34213,0.27276 -0.34345,2.2187 l -10e-4,1.67741 -0.10388,0.0961 -0.10388,0.0961 -0.75036,0 c -0.4285,0 -0.8167,0.0158 -0.90502,0.0368 -0.16419,0.039 -0.36714,0.18148 -0.72473,0.50869 -0.15518,0.14201 -0.23284,0.24334 -0.29633,0.38665 -0.0823,0.18574 -0.086,0.21475 -0.0849,0.66492 0.002,0.63917 0.0219,0.70457 0.32793,1.05296 0.2784,0.31694 0.35809,0.37092 0.70221,0.47571 0.13346,0.0406 0.36269,0.11895 0.5094,0.17401 0.25688,0.0964 0.2838,0.0997 0.72796,0.0897 0.72865,-0.0165 0.70755,-0.0565 0.69433,1.31762 -0.009,0.96042 0.0191,1.53225 0.0884,1.78194 0.018,0.0647 0.0924,0.28418 0.16547,0.48769 0.0806,0.22444 0.16358,0.54138 0.21101,0.80562 0.0595,0.33167 0.10433,0.48806 0.18775,0.65544 0.14838,0.29777 0.28351,0.59205 0.36404,0.79282 0.0368,0.0917 0.12265,0.24849 0.19084,0.34846 0.0682,0.1 0.16889,0.28951 0.22378,0.4212 0.0549,0.1317 0.1639,0.31944 0.24224,0.41722 0.0783,0.0978 0.18521,0.26177 0.23748,0.36444 0.0523,0.10267 0.16522,0.26433 0.251,0.35924 0.0858,0.0949 0.1982,0.24066 0.24982,0.32387 0.0516,0.0832 0.25472,0.31016 0.45133,0.50433 0.1966,0.19416 0.41979,0.42133 0.49598,0.50483 0.0762,0.0835 0.19312,0.19648 0.25985,0.25109 0.0667,0.0546 0.1964,0.16863 0.28815,0.25336 0.0917,0.0847 0.26237,0.21796 0.37915,0.29604 0.11678,0.0781 0.28739,0.19959 0.37914,0.27 0.0918,0.0704 0.25262,0.1682 0.35747,0.21731 0.10486,0.0491 0.27311,0.15136 0.3739,0.22723 0.1135,0.0854 0.30647,0.18261 0.50698,0.25531 0.17806,0.0645 0.36468,0.15179 0.41473,0.19387 0.16385,0.13775 0.34404,0.22083 0.65978,0.30423 0.17096,0.0451 0.43036,0.13645 0.57645,0.20289 0.31599,0.1437 0.73286,0.23824 1.1903,0.26995 0.18351,0.0127 0.43602,0.0505 0.56114,0.084 0.19862,0.0531 0.37758,0.0611 1.41042,0.063 1.05539,0.002 1.2091,-0.005 1.42559,-0.0609 z m -6.4017,-12.40721 c -0.27802,-0.0506 -0.63126,-0.38233 -0.77847,-0.73104 -0.13533,-0.32058 -0.14598,-0.5829 -0.0394,-0.97147 0.1023,-0.37299 0.20832,-0.49617 0.63277,-0.73523 0.29337,-0.16522 0.29428,-0.16548 0.6043,-0.16811 0.30659,-0.003 0.31391,-7.8e-4 0.58347,0.14395 0.15014,0.0806 0.30549,0.16366 0.34523,0.18456 0.10296,0.0542 0.20569,0.21598 0.29414,0.46335 0.20103,0.56229 0.19399,0.74566 -0.0455,1.18413 -0.22693,0.41549 -0.37459,0.54804 -0.69395,0.62297 -0.17106,0.0401 -0.69793,0.0442 -0.90259,0.007 z m 9.04055,-0.014 c -0.29538,-0.0848 -0.40096,-0.18219 -0.64408,-0.59399 -0.21038,-0.35634 -0.2507,-0.46204 -0.2507,-0.65724 0,-0.29479 0.40677,-1.05746 0.564,-1.05746 0.0151,0 0.14349,-0.0643 0.28529,-0.14289 0.2548,-0.14123 0.26146,-0.14287 0.56943,-0.14024 0.311,0.003 0.31215,0.003 0.59146,0.16359 0.50745,0.29182 0.56359,0.3652 0.64466,0.84259 0.0652,0.38427 0.0488,0.65008 -0.056,0.90382 -0.0888,0.21504 -0.32194,0.47642 -0.54489,0.61092 -0.14271,0.0861 -0.18147,0.093 -0.58021,0.10336 -0.28264,0.007 -0.47861,-0.004 -0.57894,-0.0325 z"
       style="fill:#3e3d3d;fill-opacity:1" />
  </g>
</svg>
