<?xml version="1.0" encoding="UTF-8" standalone="no"?>
<svg
   xmlns:dc="http://purl.org/dc/elements/1.1/"
   xmlns:cc="http://creativecommons.org/ns#"
   xmlns:rdf="http://www.w3.org/1999/02/22-rdf-syntax-ns#"
   xmlns:svg="http://www.w3.org/2000/svg"
   xmlns="http://www.w3.org/2000/svg"
   xmlns:sodipodi="http://sodipodi.sourceforge.net/DTD/sodipodi-0.dtd"
   xmlns:inkscape="http://www.inkscape.org/namespaces/inkscape"
   version="1.1"
   id="svg4239"
   viewBox="0 0 41.001006 40.000041"
   height="11.2889mm"
   width="11.571395mm"
   inkscape:version="0.91 r13725"
   sodipodi:docname="jobs.svg">
  <sodipodi:namedview
     pagecolor="#ffffff"
     bordercolor="#666666"
     borderopacity="1"
     objecttolerance="10"
     gridtolerance="10"
     guidetolerance="10"
     inkscape:pageopacity="0"
     inkscape:pageshadow="2"
     inkscape:window-width="689"
     inkscape:window-height="480"
     id="namedview7"
     showgrid="false"
     inkscape:zoom="5.899994"
     inkscape:cx="20.669995"
     inkscape:cy="20.00002"
     inkscape:window-x="0"
     inkscape:window-y="0"
     inkscape:window-maximized="0"
     inkscape:current-layer="svg4239" />
  <defs
     id="defs4241" />
  <metadata
     id="metadata4244">
    <rdf:RDF>
      <cc:Work
         rdf:about="">
        <dc:format>image/svg+xml</dc:format>
        <dc:type
           rdf:resource="http://purl.org/dc/dcmitype/StillImage" />
        <dc:title></dc:title>
      </cc:Work>
    </rdf:RDF>
  </metadata>
  <g
     transform="translate(-372.2573,-354.75872)"
     id="layer1"
     style="fill:#3e3d3d;fill-opacity:1">
    <path
       id="path4224"
       d="m 372.6751,394.7461 c -0.1724,-0.0241 -0.2987,-0.1083 -0.3658,-0.24396 -0.046,-0.0933 -0.052,-2.17655 -0.052,-19.75251 0,-18.80964 0,-19.65293 0.06,-19.75776 0.033,-0.0602 0.1135,-0.13703 0.1788,-0.17069 0.1122,-0.0579 1.159,-0.0612 19.4609,-0.0624 14.4931,-9.6e-4 19.354,0.009 19.3888,0.0391 0.026,0.0222 0.046,0.0968 0.046,0.1659 0,0.13286 -0.085,0.23034 -0.8606,0.98908 -0.1467,0.14345 -0.5392,0.53206 -0.8724,0.86357 -0.5555,0.55287 -0.9465,0.88787 -1.1056,0.94741 -0.034,0.0129 -7.4163,0.0235 -16.4042,0.0237 -15.8436,3.7e-4 -16.3457,0.002 -16.4762,0.0656 -0.1553,0.0753 -0.2918,0.22166 -0.3483,0.37338 -0.03,0.0802 -0.037,4.07186 -0.031,16.5824 l 0.01,16.47679 0.084,0.13003 c 0.049,0.0755 0.154,0.16669 0.2506,0.21743 l 0.1664,0.0874 16.4415,0 16.4414,0 0.1665,-0.0874 c 0.097,-0.0507 0.2017,-0.14196 0.2505,-0.21743 l 0.084,-0.13003 0.01,-9.61254 c 0,-5.28689 0.015,-9.66006 0.025,-9.71814 0.03,-0.1727 0.3937,-0.5978 1.177,-1.37502 0.4062,-0.40297 0.8302,-0.83506 0.9422,-0.9602 0.4486,-0.50086 0.6796,-0.64555 0.8376,-0.52466 0.055,0.0417 0.058,0.77442 0.057,12.67733 -5e-4,12.0928 0,12.63773 -0.061,12.7414 -0.033,0.0596 -0.1068,0.13667 -0.1636,0.17133 -0.099,0.0603 -0.935,0.0634 -19.6501,0.0716 -10.7509,0.005 -19.6094,0 -19.6857,-0.0107 z M 392.07,383.38785 c -0.085,-0.0135 -0.5494,-0.45896 -1.4051,-1.34766 -0.1212,-0.12585 -0.4774,-0.48223 -0.7916,-0.79196 -0.6296,-0.62066 -1.0509,-1.04199 -1.391,-1.39107 -0.1229,-0.12615 -0.4882,-0.49048 -0.8118,-0.80963 -0.3237,-0.31915 -0.6797,-0.67532 -0.7912,-0.79148 -0.1115,-0.11617 -0.4675,-0.47237 -0.7912,-0.79157 -0.3236,-0.31919 -0.6872,-0.68352 -0.808,-0.80963 -0.1207,-0.1261 -0.4765,-0.4826 -0.7907,-0.79223 -0.6263,-0.61716 -1.0679,-1.05663 -1.2614,-1.25517 -0.2133,-0.2189 -0.196,-0.4727 0.049,-0.71625 0.078,-0.0775 0.2616,-0.26037 0.4083,-0.40637 0.1467,-0.14599 0.4804,-0.4826 0.7416,-0.74802 0.6355,-0.64581 0.6023,-0.64602 1.2265,0.008 0.1769,0.1853 0.5782,0.59032 0.8917,0.90005 0.6427,0.63495 1.062,1.05471 1.3897,1.39108 0.1229,0.12615 0.4883,0.49048 0.8119,0.80963 0.3236,0.31915 0.6797,0.67532 0.7911,0.79148 0.1115,0.11617 0.4674,0.47258 0.7908,0.79203 0.3235,0.31946 0.7964,0.79818 1.051,1.06384 0.2546,0.26566 0.5122,0.51037 0.5725,0.54381 0.065,0.0363 0.184,0.0608 0.2946,0.0608 0.1106,0 0.2291,-0.0245 0.2946,-0.0608 0.06,-0.0334 0.3178,-0.27815 0.5724,-0.54381 0.2546,-0.26566 0.7276,-0.74438 1.051,-1.06384 0.3235,-0.31945 0.6793,-0.67586 0.7908,-0.79203 0.1115,-0.11616 0.4675,-0.47233 0.7912,-0.79148 0.3236,-0.31915 0.6889,-0.68348 0.8118,-0.80963 0.3401,-0.34908 0.7614,-0.77041 1.391,-1.39108 0.3142,-0.30973 0.67,-0.66631 0.7908,-0.79241 0.1207,-0.12611 0.4843,-0.49044 0.808,-0.80963 0.3236,-0.3192 0.6797,-0.6754 0.7911,-0.79157 0.1115,-0.11616 0.4675,-0.47233 0.7912,-0.79148 0.3236,-0.31915 0.689,-0.68348 0.8119,-0.80963 0.34,-0.34908 0.7613,-0.77041 1.3909,-1.39108 0.3142,-0.30973 0.6701,-0.66632 0.7908,-0.79242 0.1207,-0.1261 0.4843,-0.49043 0.808,-0.80963 0.3237,-0.31919 0.6797,-0.67539 0.7912,-0.79156 0.1115,-0.11616 0.4675,-0.47233 0.7911,-0.79148 0.3237,-0.31915 0.689,-0.68348 0.8119,-0.80963 0.3401,-0.34908 0.7614,-0.77041 1.391,-1.39108 0.3142,-0.30973 0.67,-0.66611 0.7907,-0.79195 0.4962,-0.51716 1.5952,-1.60461 1.662,-1.64442 0.1814,-0.10809 0.2398,-0.0728 0.7547,0.45638 0.8138,0.83648 0.9282,0.95285 1.1032,1.12178 0.1012,0.0977 0.1834,0.2139 0.2061,0.2912 0.067,0.22689 0.012,0.32825 -0.3841,0.71149 -0.1981,0.19163 -0.4895,0.47993 -0.6476,0.64068 -0.5744,0.58379 -0.8703,0.88008 -1.4308,1.43268 -0.3142,0.30973 -0.6701,0.66632 -0.7908,0.79242 -0.1207,0.1261 -0.4843,0.49044 -0.808,0.80963 -0.3237,0.31919 -0.6797,0.6754 -0.7912,0.79156 -0.1115,0.11617 -0.4675,0.47233 -0.7911,0.79149 -0.3237,0.31915 -0.689,0.68348 -0.8119,0.80963 -0.3401,0.34908 -0.7614,0.77041 -1.391,1.39107 -0.3142,0.30973 -0.67,0.66632 -0.7907,0.79242 -0.1208,0.1261 -0.4844,0.49044 -0.808,0.80963 -0.3237,0.3192 -0.6797,0.6754 -0.7912,0.79156 -0.1115,0.11617 -0.4675,0.47234 -0.7912,0.79149 -0.3236,0.31915 -0.689,0.68348 -0.8118,0.80963 -0.3401,0.34908 -0.7614,0.77041 -1.391,1.39107 -0.3142,0.30973 -0.6701,0.66632 -0.7908,0.79242 -0.1207,0.12611 -0.4843,0.49044 -0.808,0.80963 -0.3236,0.3192 -0.6797,0.6754 -0.7912,0.79157 -0.1114,0.11616 -0.4675,0.47233 -0.7911,0.79148 -0.3236,0.31915 -0.689,0.68348 -0.8119,0.80963 -0.34,0.34908 -0.7613,0.77041 -1.391,1.39107 -0.3141,0.30973 -0.6704,0.66611 -0.7915,0.79196 -0.1212,0.12584 -0.465,0.47605 -0.764,0.77822 -0.6062,0.61261 -0.6313,0.62698 -0.9939,0.56944 z"
       style="fill:#3e3d3d;fill-opacity:1" />
  </g>
</svg>
